{
  "serviceUrl": "//wasmexplorer-service.herokuapp.com/service.php",
  "clang": "//webassembly-studio-clang.herokuapp.com/build",
  "rustc": "//webassembly-studio-rust.herokuapp.com/rustc",
  "cargo": "http://localhost:5000/ide-compile",
  "ghAccessToken": "http://localhost:5000/github-access-token",
  "ghAuthRedirect": "https://localhost:28443",
  "ghCliendId": "c8f30696a19c91b0f570",
  "logrocketProject": "glggav/play-seed-test", 
  "templates": {
    "default": "/dist/templates/index.js",
    "arc": "/dist/arc-templates/index.js",
    "seed": "/dist/seed-templates/index.js"
  },
  "sentryDNS": "https://756ae32005ed49cf9d4dd2aa106ccd4a@sentry.io/1229949"
}
